Chapter 5 Mcrobial Profiling Using qiime2 Pipeline | Bioinformatics Analysis of Microbiome Data
…
read_delim("/Volumes/RedSeagate/MOTHUR_BUSHMEAT/SRR7450/qiime2_bushmeat/q2-transformed-tables/feature-table.tsv", skip = 1) %>%
  rename(otu = "#OTU ID") %>% 
  saveRDS("RDataRDS/q2_otutable.rds")

readRDS("RDataRDS/q2_taxonomy.rds") %>% 
  inner_join(., readRDS("RDataRDS/q2_otutable.rds"), by="otu")

# A tibble: 494 × 19
   otu     kingdom phylum class order family genus species confidence SRR7450728
   <chr>   <chr>   <chr>  <chr> <chr> <chr>  <chr> <chr>        <dbl>      <dbl>
 1 04edaa… k__Bac… p__Fi… c__C… o__C… f__Pe… g__[… s__sor…       0.96        267
 2 e27b9e… k__Bac… p__Fi… c__B… o__B… f__St… g__M… s__cas…       0.91      15210
 3 d46e22… k__Bac… p__Pr… c__G… o__E… f__En… <NA>  <NA>          1          2374
 4 41db43… k__Bac… <NA>   <NA>  <NA>  <NA>   <NA>  <NA>          0.93        409
 5 9580aa… k__Bac… p__Fi… c__C… o__C… f__Cl… g__C… s__per…       1           146
 6 6f70e5… k__Bac… p__Fi… c__C… o__C… f__Cl… g__C… <NA>          0.8           0
 7 547357… k__Bac… <NA>   <NA>  <NA>  <NA>   <NA>  <NA>          0.97       7092
 8 bc3621… k__Bac… p__Pr… c__G… o__P… f__Mo… g__A… <NA>          1           357
 9 9209e4… k__Bac… p__Fi… c__C… o__C… f__Cl… g__C… <NA>          0.98        689
10 5970d8… k__Bac… p__Cy… c__C… o__C… <NA>   <NA>  <NA>          1           111
# … with 484 more rows, and 9 more variables: SRR7450732 <dbl>,
#   SRR7450746 <dbl>, SRR7450747 <dbl>, SRR7450752 <dbl>, SRR7450753 <dbl>,
#   SRR7450755 <dbl>, SRR7450757 <dbl>, SRR7450758 <dbl>, SRR7450759 <dbl>
…
